{
   "photos": {
      "page": 1,
      "pages": 1706,
      "perpage": 100,
      "total": "170578",
      "photo": [
         {
            "id": "48822393341",
            "owner": "156899274@N08",
            "secret": "5f51f56614",
            "server": "65535",
            "farm": 66,
            "title": "Портрет котёнка.",
            "ispublic": 1,
            "isfriend": 0,
            "isfamily": 0
         },
         {
            "id": "48822184531",
            "owner": "156679565@N04",
            "secret": "b0bc8f0d33",
            "server": "65535",
            "farm": 66,
            "title": "NEW ENVIEE @ LEVEL 9/30",
            "ispublic": 1,
            "isfriend": 0,
            "isfamily": 0
         },
         {
            "id": "35418907823",
            "owner": "90064781@N08",
            "secret": "170e367569",
            "server": "4324",
            "farm": 5,
            "title": "Satin Blouse and Leather miniskirt",
            "ispublic": 1,
            "isfriend": 0,
            "isfamily": 0
         }
      ]
   },
   "stat": "ok"
}
